PamChip Location	Barcode	Row	Col	Array	Sample name	Factor1	Visual QC	Date	Compound(on Chip)	Compound concentration	ATP	SFactor10	WL protocol	SFactor9	Protein amount
1	631158404	1	1	A1	VU20	Control1	OK	120511	DMSO	-15.0	400	Melanoma	1200PTKlys50v02	BRAFWT	5	
1	631158404	2	1	A2	VU20	Treatment1	OK	120511	Vemurafenib	0.69897	400	Melanoma	1200PTKlys50v02	BRAFWT	5	
1	631158404	3	1	A3	VU01	Control2	OK	120511	DMSO	-15.0	400	Melanoma	1200PTKlys50v02	BRAFV600E	5	
1	631158404	4	1	A4	VU01	Treatment2	OK	120511	Vemurafenib	0.69897	400	Melanoma	1200PTKlys50v02	BRAFV600E	5	
2	631158405	1	1	A1	VU20	Control1	OK	120511	DMSO	-15.0	400	Melanoma	1200PTKlys50v02	BRAFWT	5	
2	631158405	2	1	A2	VU20	Treatment1	OK	120511	Vemurafenib	0.69897	400	Melanoma	1200PTKlys50v02	BRAFWT	5	
2	631158405	3	1	A3	VU01	Control2	OK	120511	DMSO	-15.0	400	Melanoma	1200PTKlys50v02	BRAFV600E	5	
2	631158405	4	1	A4	VU01	Treatment2	OK	120511	Vemurafenib	0.69897	400	Melanoma	1200PTKlys50v02	BRAFV600E	5	
3	631158406	1	1	A1	VU20	Control1	OK	120511	DMSO	-15.0	400	Melanoma	1200PTKlys50v02	BRAFWT	5	
3	631158406	2	1	A2	VU20	Treatment1	OK	120511	Vemurafenib	0.69897	400	Melanoma	1200PTKlys50v02	BRAFWT	5	
3	631158406	3	1	A3	VU01	Control2	OK	120511	DMSO	-15.0	400	Melanoma	1200PTKlys50v02	BRAFV600E	5	
3	631158406	4	1	A4	VU01	Treatment2	OK	120511	Vemurafenib	0.69897	400	Melanoma	1200PTKlys50v02	BRAFV600E	5	
